[gd_scene load_steps=7 format=3 uid="uid://rlgxm4ismep7"]

[ext_resource type="Script" path="res://Main/trash_can.gd" id="1_4wlv8"]
[ext_resource type="Texture2D" uid="uid://ddfqs6hhu2b4s" path="res://resources/trash-can-lid.svg" id="1_ur3tu"]
[ext_resource type="Texture2D" uid="uid://d1cxd4rm5ggcv" path="res://resources/trash-can-body.svg" id="2_cpqv8"]

[sub_resource type="Animation" id="Animation_rrdno"]
resource_name = "Open"
length = 0.35
tracks/0/type = "value"
tracks/0/imported = false
tracks/0/enabled = true
tracks/0/path = NodePath(".:rotation")
tracks/0/interp = 2
tracks/0/loop_wrap = true
tracks/0/keys = {
"times": PackedFloat32Array(0, 0.35),
"transitions": PackedFloat32Array(1, 1),
"update": 0,
"values": [0.0, -1.70344]
}

[sub_resource type="Animation" id="Animation_mlqj6"]
length = 0.001
tracks/0/type = "value"
tracks/0/imported = false
tracks/0/enabled = true
tracks/0/path = NodePath(".:rotation")
tracks/0/interp = 1
tracks/0/loop_wrap = true
tracks/0/keys = {
"times": PackedFloat32Array(0),
"transitions": PackedFloat32Array(1),
"update": 0,
"values": [0.0]
}

[sub_resource type="AnimationLibrary" id="AnimationLibrary_wg3k2"]
_data = {
"Open": SubResource("Animation_rrdno"),
"RESET": SubResource("Animation_mlqj6")
}

[node name="TrashCan" type="Node2D"]
script = ExtResource("1_4wlv8")

[node name="Animated Lid" type="Node2D" parent="."]
position = Vector2(-34, 11)

[node name="Lid" type="Sprite2D" parent="Animated Lid"]
position = Vector2(34, 30)
texture = ExtResource("1_ur3tu")

[node name="AnimationPlayer" type="AnimationPlayer" parent="Animated Lid"]
libraries = {
"": SubResource("AnimationLibrary_wg3k2")
}

[node name="Body" type="Sprite2D" parent="."]
position = Vector2(0, 38)
texture = ExtResource("2_cpqv8")
